…
``` r
library(REDI)
## Simulate a synthetic dataset, containing observations (inputs) from '2022-01-01' to '2023-01-01'. Outputs follow a gaussian distribution (mean = 50, var = 10), with a ratio of missing values equals to 0.5.

set.seed(1)
db <- simu_db(start_date = '2022-01-01',
    end_date = '2023-01-01',
    by = 'day',
    output_distrib = 'Gaussian',
    ratio_missing = 0.5,
    mean = 50,
    var = 10)
db
#> # A tibble: 366 × 2
#>    Input      Output
#>    <date>      <dbl>
#>  1 2022-01-01   48.0
#>  2 2022-01-02   NA  
#>  3 2022-01-03   47.4
#>  4 2022-01-04   55.0
#>  5 2022-01-05   51.0
#>  6 2022-01-06   47.4
#>  7 2022-01-07   NA  
#>  8 2022-01-08   NA  
#>  9 2022-01-09   NA  
#> 10 2022-01-10   NA  
#> # … with 356 more rows
```
…
